Analise exploratória
…
Genótipos

Em geral foram avaliados 530 genótipos em sistema IRRIGADO 500 genótipos em sistema TERRAS ALTAS

### Terras altas _número de repetição por genótipo
GENOTIPOS_TA<-TabelabrutaTA %>% 
  group_by(GENOTIPO) %>% 
  summarise(Contagem = length(unique(ID_ENSAIO)), FLO_medio = mean(FLO_E))

## `summarise()` ungrouping output (override with `.groups` argument)

GENOTIPOS_TA

## # A tibble: 500 x 3
##    GENOTIPO   Contagem FLO_medio
##    <chr>         <int>     <dbl>
##  1 07SEQCL400        2      84  
##  2 07SEQCL413        2      86.4
##  3 07SEQCL417        2      83.8
##  4 07SEQCL418        2      83.5
##  5 07SEQCL427        2      83.2
##  6 07SEQCL431        2      83.5
##  7 07SEQCL432        2      83.8
##  8 07SEQCL440        2      83.6
##  9 07SEQCL441        2      83.5
## 10 07SEQCL443        2      83.6
## # ... with 490 more rows

### Irrigado_número de repetição por genótipo
GENOTIPOS_IRR<-TabelabrutaIRR %>% 
  group_by(GENOTIPO) %>% 
  summarise(Contagem = length(unique(ID_ENSAIO)), FLO_medio = mean(FLO_E))

## `summarise()` ungrouping output (override with `.groups` argument)

GENOTIPOS_IRR

## # A tibble: 530 x 3
##    GENOTIPO Contagem FLO_medio
##    <chr>       <int>     <dbl>
##  1 AB051077        4      91.2
##  2 AB051108        4      92.4
##  3 AB08020         7      79.4
##  4 AB09003         3      99.2
##  5 AB09007         7      86.1
##  6 AB09023         7      89.7
##  7 AB09025         3      90.8
##  8 AB091004        7      82.4
##  9 AB091006        5      86.3
## 10 AB091007        7      82.4
## # ... with 520 more rows
…
